{
  "class_name": "Sequential",
  "config": {
    "name": "sequential_1",
    "layers": [
      {
        "class_name": "ConvLSTM2D",
        "config": {
          "name": "conv_lst_m2d_1",
          "trainable": true,
          "batch_input_shape": [
            null,
            null,
            32,
            32,
            3
          ],
          "dtype": "float32",
          "return_sequences": true,
          "return_state": false,
          "go_backwards": false,
          "stateful": false,
          "unroll": false,
          "filters": 40,
          "kernel_size": [
            3,
            3
          ],
          "strides": [
            1,
            1
          ],
          "padding": "same",
          "data_format": "channels_last",
          "dilation_rate": [
            1,
            1
          ],
          "activation": "tanh",
          "recurrent_activation": "hard_sigmoid",
          "use_bias": true,
          "kernel_initializer": {
            "class_name": "VarianceScaling",
            "config": {
              "scale": 1.0,
              "mode": "fan_avg",
              "distribution": "uniform",
              "seed": null
            }
          },
          "recurrent_initializer": {
            "class_name": "Orthogonal",
            "config": {
              "gain": 1.0,
              "seed": null
            }
          },
          "bias_initializer": {
            "class_name": "Zeros",
            "config": {}
          },
          "unit_forget_bias": true,
          "kernel_regularizer": null,
          "recurrent_regularizer": null,
          "bias_regularizer": null,
          "activity_regularizer": null,
          "kernel_constraint": null,
          "recurrent_constraint": null,
          "bias_constraint": null,
          "dropout": 0.0,
          "recurrent_dropout": 0.0
        }
      },
      {
        "class_name": "AveragePooling3D",
        "config": {
          "name": "max_pooling3d_1",
          "trainable": true,
          "pool_size": [
            2,
            2,
            2
          ],
          "padding": "valid",
          "strides": [
            2,
            2,
            2
          ],
          "data_format": "channels_last"
        }
      },
      {
        "class_name": "BatchNormalization",
        "config": {
          "name": "batch_normalization_1",
          "trainable": true,
          "axis": -1,
          "momentum": 0.99,
          "epsilon": 0.001,
          "center": true,
          "scale": true,
          "beta_initializer": {
            "class_name": "Zeros",
            "config": {}
          },
          "gamma_initializer": {
            "class_name": "Ones",
            "config": {}
          },
          "moving_mean_initializer": {
            "class_name": "Zeros",
            "config": {}
          },
          "moving_variance_initializer": {
            "class_name": "Ones",
            "config": {}
          },
          "beta_regularizer": null,
          "gamma_regularizer": null,
          "beta_constraint": null,
          "gamma_constraint": null
        }
      },
      {
        "class_name": "Dropout",
        "config": {
          "name": "dropout_1",
          "trainable": true,
          "rate": 0.3,
          "noise_shape": null,
          "seed": null
        }
      },
      {
        "class_name": "ConvLSTM2D",
        "config": {
          "name": "conv_lst_m2d_2",
          "trainable": true,
          "return_sequences": false,
          "return_state": false,
          "go_backwards": false,
          "stateful": false,
          "unroll": false,
          "filters": 16,
          "kernel_size": [
            3,
            3
          ],
          "strides": [
            1,
            1
          ],
          "padding": "same",
          "data_format": "channels_last",
          "dilation_rate": [
            1,
            1
          ],
          "activation": "tanh",
          "recurrent_activation": "hard_sigmoid",
          "use_bias": true,
          "kernel_initializer": {
            "class_name": "VarianceScaling",
            "config": {
              "scale": 1.0,
              "mode": "fan_avg",
              "distribution": "uniform",
              "seed": null
            }
          },
          "recurrent_initializer": {
            "class_name": "Orthogonal",
            "config": {
              "gain": 1.0,
              "seed": null
            }
          },
          "bias_initializer": {
            "class_name": "Zeros",
            "config": {}
          },
          "unit_forget_bias": true,
          "kernel_regularizer": null,
          "recurrent_regularizer": null,
          "bias_regularizer": null,
          "activity_regularizer": null,
          "kernel_constraint": null,
          "recurrent_constraint": null,
          "bias_constraint": null,
          "dropout": 0.0,
          "recurrent_dropout": 0.0
        }
      },
      {
        "class_name": "AveragePooling2D",
        "config": {
          "name": "average_pooling2d_1",
          "trainable": true,
          "pool_size": [
            2,
            2
          ],
          "padding": "valid",
          "strides": [
            2,
            2
          ],
          "data_format": "channels_last"
        }
      },
      {
        "class_name": "BatchNormalization",
        "config": {
          "name": "batch_normalization_2",
          "trainable": true,
          "axis": -1,
          "momentum": 0.99,
          "epsilon": 0.001,
          "center": true,
          "scale": true,
          "beta_initializer": {
            "class_name": "Zeros",
            "config": {}
          },
          "gamma_initializer": {
            "class_name": "Ones",
            "config": {}
          },
          "moving_mean_initializer": {
            "class_name": "Zeros",
            "config": {}
          },
          "moving_variance_initializer": {
            "class_name": "Ones",
            "config": {}
          },
          "beta_regularizer": null,
          "gamma_regularizer": null,
          "beta_constraint": null,
          "gamma_constraint": null
        }
      },
      {
        "class_name": "Flatten",
        "config": {
          "name": "flatten_1",
          "trainable": true,
          "data_format": "channels_last"
        }
      },
      {
        "class_name": "Dropout",
        "config": {
          "name": "dropout_2",
          "trainable": true,
          "rate": 0.3,
          "noise_shape": null,
          "seed": null
        }
      },
      {
        "class_name": "Dense",
        "config": {
          "name": "dense_1",
          "trainable": true,
          "units": 50,
          "activation": "tanh",
          "use_bias": true,
          "kernel_initializer": {
            "class_name": "VarianceScaling",
            "config": {
              "scale": 1.0,
              "mode": "fan_avg",
              "distribution": "uniform",
              "seed": null
            }
          },
          "bias_initializer": {
            "class_name": "Zeros",
            "config": {}
          },
          "kernel_regularizer": null,
          "bias_regularizer": null,
          "activity_regularizer": null,
          "kernel_constraint": null,
          "bias_constraint": null
        }
      },
      {
        "class_name": "Dropout",
        "config": {
          "name": "dropout_3",
          "trainable": true,
          "rate": 0.3,
          "noise_shape": null,
          "seed": null
        }
      },
      {
        "class_name": "Dense",
        "config": {
          "name": "dense_2",
          "trainable": true,
          "units": 3,
          "activation": "softmax",
          "use_bias": true,
          "kernel_initializer": {
            "class_name": "VarianceScaling",
            "config": {
              "scale": 1.0,
              "mode": "fan_avg",
              "distribution": "uniform",
              "seed": null
            }
          },
          "bias_initializer": {
            "class_name": "Zeros",
            "config": {}
          },
          "kernel_regularizer": null,
          "bias_regularizer": null,
          "activity_regularizer": null,
          "kernel_constraint": null,
          "bias_constraint": null
        }
      }
    ]
  },
  "keras_version": "2.2.4",
  "backend": "tensorflow"
}
